#Data tag : 19v3 , Norm tag: None
#run:fill,time,nls,ncms,delivered(/fb),recorded(/fb)
295598:5730,05/30/17 08:43:15,4,0,0.000178023,0
295600:5730,05/30/17 08:44:48,49,29,0.001899131,0.000886751
295602:5730,05/30/17 09:03:30,96,36,0.004065334,0.000443709
295603:5730,05/30/17 09:40:47,76,70,0.003076557,0.002389622
295604:5730,05/30/17 10:10:08,15,6,0.000593327,0.000137168
295605:5730,05/30/17 10:15:55,290,251,0.011112884,0.008733847
295606:5730,05/30/17 12:08:22,81,76,0.002815179,0.002571241
295607:5730,05/30/17 12:39:35,15,8,0.000512065,0.000239687
295608:5730,05/30/17 12:45:11,96,61,0.003206041,0.002013909
295610:5730,05/30/17 13:22:23,71,49,0.002300912,0.001441078
295613:5730,05/30/17 13:49:40,265,258,0.007899627,0.007684221
295616:5730,05/30/17 15:32:34,234,210,0.005818044,0.004988823
295628:5730,05/30/17 17:03:18,51,39,0.001370974,0.000826180
295632:5730,05/30/17 17:22:51,32,21,0.000690455,0.000442173
295634:5730,05/30/17 17:35:11,30,18,0.000210649,0.000093735
295635:5730,05/30/17 17:46:31,29,18,0.000182169,0.000098289
295636:5730,05/30/17 17:57:41,25,12,0.000563808,0.000151617
295637:5730,05/30/17 18:27:18,26,13,0.000660241,0.000166016
295638:5730,05/30/17 18:37:13,30,19,0.000760413,0.000335407
295639:5730,05/30/17 18:48:47,31,19,0.000778530,0.000359565
295640:5730,05/30/17 19:00:47,29,18,0.000721681,0.000352928
295641:5730,05/30/17 19:12:01,30,18,0.000739644,0.000350603
295642:5730,05/30/17 19:23:25,43,18,0.001048796,0.000353476
295643:5730,05/30/17 19:39:49,12,3,0.000290458,0.000000819
295644:5730,05/30/17 19:44:26,40,28,0.000960381,0.000533000
295645:5730,05/30/17 19:59:47,29,18,0.000688758,0.000341964
295646:5730,05/30/17 20:11:04,30,19,0.000706015,0.000378187
295647:5730,05/30/17 20:22:41,30,18,0.000698773,0.000314768
295648:5730,05/30/17 20:34:18,31,18,0.000716642,0.000322065
295649:5730,05/30/17 20:46:11,31,19,0.000711095,0.000339233
295650:5730,05/30/17 20:58:11,31,19,0.000705377,0.000340869
295651:5730,05/30/17 21:10:04,17,8,0.000384447,0.000109273
295652:5730,05/30/17 21:16:26,21,5,0.000474890,0.000070423
295653:5730,05/30/17 21:24:30,20,16,0.000450348,0.000000009
295654:5730,05/30/17 21:32:18,10,4,0.000224557,0
295655:5730,05/30/17 21:35:58,434,434,0.009244083,0.008534184
295953:5737,06/03/17 05:01:20,183,145,0.005682917,0.004664460
295965:5737,06/03/17 06:12:14,13,5,0.000009262,0.000000013
295966:5737,06/03/17 06:17:13,14,6,0.000009819,0.000000014
295967:5737,06/03/17 06:22:18,15,7,0.000010385,0.000000014
295968:5737,06/03/17 06:27:59,14,4,0.000009649,0.000000014
295969:5737,06/03/17 06:33:24,73,56,0.000050983,0.000032325
295971:5737,06/03/17 07:01:36,25,5,0.000017423,0
295972:5737,06/03/17 07:11:08,13,2,0.000008970,0
295973:5737,06/03/17 07:16:02,12,4,0.000008233,0
295974:5737,06/03/17 07:20:21,9,2,0.000006193,0
295975:5737,06/03/17 07:23:46,17,5,0.000012131,0.000000010
295976:5737,06/03/17 07:30:01,21,12,0.000014887,0.000006472
295977:5737,06/03/17 07:37:55,563,542,0.000398883,0.000324650
295978:5737,06/03/17 11:16:23,25,25,0.000019110,0.000016839
296070:5746,06/04/17 23:49:26,48,41,0.003262862,0.001326316
296071:5746,06/05/17 00:07:48,74,17,0.005564024,0.000005288
296073:5746,06/05/17 00:36:35,12,4,0.000895716,0.000032680
296074:5746,06/05/17 00:41:14,21,14,0.001549764,0.000838668
296075:5746,06/05/17 00:49:18,171,156,0.008819935,0.007497494
296076:5746,06/05/17 01:55:23,26,15,0.001818086,0.000719830
296077:5746,06/05/17 02:05:22,31,20,0.002142891,0.000798753
296078:5746,06/05/17 02:17:11,26,15,0.001777529,0.000707234
296079:5746,06/05/17 02:27:12,33,15,0.002229759,0.000790273
296081:5746,06/05/17 02:39:54,28,16,0.001869254,0.000591920
296082:5746,06/05/17 02:50:47,12,7,0.000794294,0.000091790
296083:5746,06/05/17 02:55:10,31,16,0.002035302,0.000768388
296084:5746,06/05/17 03:06:57,28,17,0.001816870,0.000748873
296085:5746,06/05/17 03:17:32,32,16,0.002053825,0.000709134
296086:5746,06/05/17 03:29:57,13,7,0.000826924,0.000028183
296087:5746,06/05/17 03:34:58,43,16,0.002704508,0.000656964
296088:5746,06/05/17 03:51:32,31,16,0.001922775,0.000732623
296089:5746,06/05/17 04:03:34,31,16,0.001900406,0.000716600
296090:5746,06/05/17 04:15:32,34,15,0.002059679,0.000522873
296091:5746,06/05/17 04:28:33,44,19,0.002627875,0.000816471
296092:5746,06/05/17 04:45:39,33,17,0.001943049,0.000803670
296093:5746,06/05/17 04:58:11,32,16,0.001863603,0.000697283
296094:5746,06/05/17 05:10:19,10,5,0.000578111,0.000012229
296095:5746,06/05/17 05:13:55,32,16,0.001836045,0.000759072
296096:5746,06/05/17 05:26:06,35,19,0.001984664,0.000700827
296097:5746,06/05/17 05:39:42,32,16,0.001793201,0.000666076
296098:5746,06/05/17 05:51:47,32,17,0.001773375,0.000743060
296099:5746,06/05/17 06:04:07,30,15,0.001645220,0.000585684
296100:5746,06/05/17 06:15:41,30,15,0.001628542,0.000631299
296101:5746,06/05/17 06:27:19,36,21,0.001929161,0.000637096
296102:5746,06/05/17 06:41:14,26,21,0.001372617,0.000030688
296103:5746,06/05/17 06:51:06,35,17,0.001829745,0.000743012
296104:5746,06/05/17 07:04:39,44,29,0.002277335,0.000885989
296107:5746,06/05/17 07:21:43,32,16,0.001636652,0.000581258
296108:5746,06/05/17 07:33:49,31,15,0.001568271,0.000626856
296109:5746,06/05/17 07:45:33,32,16,0.001595841,0.000626332
296110:5746,06/05/17 07:57:47,31,15,0.001541736,0.000602922
296111:5746,06/05/17 08:09:40,38,23,0.001869272,0.000621428
296112:5746,06/05/17 08:24:17,31,15,0.001508303,0.000602525
296113:5746,06/05/17 08:36:01,49,16,0.002353835,0.000613410
296114:5746,06/05/17 08:54:56,56,34,0.002639403,0.001225992
296115:5746,06/05/17 09:16:26,35,24,0.001626389,0.000956573
296116:5746,06/05/17 09:29:45,148,148,0.006429931,0.006218355
296168:5749,06/05/17 21:12:09,43,43,0.002857254,0.001385300
296172:5750,06/06/17 00:56:39,55,44,0.003661366,0.002059853
296173:5750,06/06/17 01:17:49,791,781,0.050008290,0.048065939
296174:5750,06/06/17 06:24:50,41,41,0.002231942,0.002024308
296641:5822,06/12/17 09:39:06,12,11,0.000004544,0.000001001
296642:5822,06/12/17 09:43:32,48,46,0.000025614,0.000017204
296643:5822,06/12/17 10:02:01,28,21,0.000013960,0.000007544
296644:5822,06/12/17 10:12:33,44,15,0.000021194,0.000006217
296646:5822,06/12/17 10:29:31,26,15,0.000012295,0.000006624
296647:5822,06/12/17 10:39:36,21,21,0.000009806,0.000006373
296663:5824,06/12/17 17:19:30,53,44,0.005547173,0.002242887
296664:5824,06/12/17 17:39:54,41,28,0.003653817,0.002015566
296665:5824,06/12/17 17:55:39,46,20,0.004642072,0.001508146
296666:5824,06/12/17 18:13:32,29,17,0.002862634,0.001098849
296668:5824,06/12/17 18:24:38,46,17,0.004449704,0.001025756
296669:5824,06/12/17 18:42:21,27,16,0.002566535,0.001218490
296671:5824,06/12/17 18:52:44,20,12,0.001864828,0.000000154
296674:5824,06/12/17 19:00:25,33,22,0.003066142,0.001490096
296675:5824,06/12/17 19:13:05,27,16,0.002472629,0.001038191
296676:5824,06/12/17 19:23:20,31,20,0.002800578,0.001465405
296677:5824,06/12/17 19:35:13,76,66,0.006711287,0.002395669
296678:5824,06/12/17 20:10:20,27,16,0.002263890,0.001201833
296679:5824,06/12/17 20:20:44,28,17,0.002311607,0.000989489
296680:5824,06/12/17 20:31:26,30,18,0.002071704,0.001200242
296702:5825,06/12/17 23:43:15,95,95,0.015469406,0.013380689
296786:5830,06/14/17 06:30:46,712,701,0.088103844,0.079156320
296787:5830,06/14/17 11:18:09,83,76,0.009072947,0.007481282
296788:5830,06/14/17 11:50:21,61,49,0.006434141,0.004743207
296789:5830,06/14/17 12:13:57,28,16,0.002893440,0.001237879
296790:5830,06/14/17 12:24:48,27,16,0.002754383,0.001074149
296791:5830,06/14/17 12:35:07,43,16,0.004317275,0.000307339
296795:5830,06/14/17 12:51:43,31,18,0.003056680,0.001494887
296796:5830,06/14/17 13:03:28,98,94,0.008327931,0.005806012
296797:5830,06/14/17 13:45:15,26,16,0.002468011,0.001279182
296798:5830,06/14/17 13:55:22,9,4,0.000846433,0.000046938
296799:5830,06/14/17 13:58:33,17,6,0.001588991,0.000252050
296800:5830,06/14/17 14:04:52,20,16,0.001854440,0.001123540
296801:5830,06/14/17 14:12:18,17,6,0.001567237,0.000436628
296802:5830,06/14/17 14:18:48,21,16,0.001914141,0.001216100
296866:5833,06/14/17 20:04:58,54,42,0.007003978,0.003867023
296867:5833,06/14/17 20:25:58,147,136,0.019936013,0.015491303
296868:5833,06/14/17 21:22:59,30,18,0.003897834,0.001884382
296869:5833,06/14/17 21:34:17,27,16,0.003435461,0.001655044
296870:5833,06/14/17 21:44:46,28,17,0.003528069,0.001639759
296871:5833,06/14/17 21:55:20,29,17,0.003603457,0.001663449
296872:5833,06/14/17 22:06:32,27,16,0.003297926,0.001518102
296873:5833,06/14/17 22:17:01,27,16,0.003227549,0.001484143
296874:5833,06/14/17 22:27:28,27,16,0.003191977,0.001576860
296875:5833,06/14/17 22:37:54,26,15,0.003054100,0.001362329
296876:5833,06/14/17 22:47:49,27,16,0.003131374,0.001504225
296877:5833,06/14/17 22:58:01,31,19,0.003520797,0.001531323
296878:5833,06/14/17 23:09:46,29,15,0.003265467,0.001389146
296879:5833,06/14/17 23:20:57,25,17,0.002780916,0.001601219
296880:5833,06/14/17 23:30:23,45,39,0.004926244,0.004149387
296881:5833,06/14/17 23:47:42,8,8,0.000852290,0.000845025
296887:5834,06/15/17 04:21:37,406,400,0.051841046,0.047847527
296888:5834,06/15/17 06:59:01,213,207,0.023507277,0.020388509
296889:5834,06/15/17 08:21:38,36,25,0.003745003,0.002496963
296890:5834,06/15/17 08:35:17,15,4,0.001542672,0
296891:5834,06/15/17 08:41:00,25,14,0.002547602,0
296892:5834,06/15/17 08:50:25,17,4,0.001715927,0
296893:5834,06/15/17 08:56:49,42,20,0.004186499,0
296894:5834,06/15/17 09:13:06,9,5,0.000881382,0.000000002
296895:5834,06/15/17 09:16:30,36,17,0.003499154,0.000590078
296897:5834,06/15/17 09:30:29,75,64,0.007171603,0.005529485
296898:5834,06/15/17 09:59:30,45,34,0.004193042,0.002986350
296899:5834,06/15/17 10:16:52,27,16,0.002474810,0.001312083
296900:5834,06/15/17 10:27:06,43,31,0.003876046,0.002665165
296901:5834,06/15/17 10:43:32,29,17,0.002572954,0.001450559
296902:5834,06/15/17 10:54:31,29,18,0.002082271,0.001301539
296903:5834,06/15/17 11:05:31,8,8,0.000696845,0.000448222
296966:5837,06/15/17 22:52:52,166,160,0.027145382,0.019016417
296967:5837,06/15/17 23:57:14,39,28,0.006227299,0.003240695
296968:5837,06/16/17 00:12:09,32,23,0.005112935,0.002078413
296969:5837,06/16/17 00:24:29,73,68,0.011131662,0.010084086
296970:5837,06/16/17 00:52:37,179,168,0.025452704,0.023335626
296971:5837,06/16/17 02:02:02,29,23,0.003876125,0.002590653
296972:5837,06/16/17 02:13:10,230,165,0.029219289,0.020765318
296976:5837,06/16/17 03:42:17,185,169,0.021462637,0.018102313
296977:5837,06/16/17 04:53:51,537,529,0.052251845,0.050658008
296978:5837,06/16/17 08:22:27,158,147,0.014099891,0.012889838
296979:5837,06/16/17 09:23:49,26,19,0.002216247,0.001040099
296980:5837,06/16/17 09:33:36,150,150,0.012754372,0.012124719
296991:5838,06/16/17 12:54:39,15,0,0.002570984,0
297001:5838,06/16/17 13:00:25,12,4,0.002034238,0.000000009
297002:5838,06/16/17 13:04:50,10,3,0.001680861,0.000000011
297003:5838,06/16/17 13:08:26,75,60,0.012227873,0.009364220
297004:5838,06/16/17 13:37:30,35,19,0.005500869,0.002611342
297006:5838,06/16/17 13:51:06,27,16,0.004168657,0.002197197
297007:5838,06/16/17 14:01:24,31,16,0.004660052,0.002185366
297009:5838,06/16/17 14:13:17,31,19,0.003826015,0.001852501
297010:5838,06/16/17 14:25:14,28,17,0.004216026,0.002340614
297011:5838,06/16/17 14:36:04,27,16,0.004008713,0.002190082
297012:5838,06/16/17 14:46:24,28,16,0.004101219,0.002175557
297013:5838,06/16/17 14:57:00,10,3,0.001451399,0.000000003
297014:5838,06/16/17 15:00:40,13,5,0.001876247,0.000000005
297015:5838,06/16/17 15:05:32,28,16,0.004000240,0.002199849
297016:5838,06/16/17 15:16:07,27,16,0.003806879,0.002125268
297017:5838,06/16/17 15:26:31,28,15,0.003907335,0.001963777
297018:5838,06/16/17 15:37:06,28,17,0.003924119,0.002217973
297019:5838,06/16/17 15:47:50,34,18,0.004709845,0.002337833
297046:5839,06/16/17 19:28:49,122,112,0.020585824,0.017353706
297047:5839,06/16/17 20:16:08,39,28,0.006551450,0.004348658
297048:5839,06/16/17 20:31:19,26,15,0.004284749,0.002246968
297049:5839,06/16/17 20:41:23,26,15,0.004224649,0.002281724
297050:5839,06/16/17 20:51:28,777,777,0.107500678,0.104493121
297056:5840,06/17/17 04:59:59,203,194,0.034446006,0.029556351
297057:5840,06/17/17 06:18:36,912,912,0.122649962,0.118884038
297099:5842,06/17/17 19:21:16,52,46,0.010742662,0.007510808
297100:5842,06/17/17 19:41:21,389,379,0.080279970,0.074244440
297101:5842,06/17/17 22:12:25,1102,1102,0.168301013,0.164163820
297112:5845,06/18/17 12:40:38,7,0,0.001838704,0
297113:5845,06/18/17 12:43:12,252,245,0.059257071,0.052654018
297114:5845,06/18/17 14:21:04,163,163,0.034964922,0.033454125
297168:5848,06/19/17 17:54:08,34,22,0.007839419,0.003701305
297169:5848,06/19/17 18:07:02,24,13,0.005320663,0.002100123
297170:5848,06/19/17 18:16:01,19,7,0.004698699,0.001300152
297171:5848,06/19/17 18:23:17,79,68,0.018983637,0.014649432
297172:5848,06/19/17 18:54:00,7,3,0.001639355,0
297173:5848,06/19/17 18:56:37,10,2,0.002331409,0.000000002
297174:5848,06/19/17 19:00:17,12,2,0.002781163,0.000000002
297175:5848,06/19/17 19:04:40,87,76,0.019511254,0.015880451
297176:5848,06/19/17 19:38:25,222,210,0.047134636,0.042848190
297177:5848,06/19/17 21:04:30,167,158,0.033228034,0.030311823
297178:5848,06/19/17 22:09:07,1392,1378,0.205166168,0.199148752
297179:5848,06/20/17 07:09:38,104,93,0.011510973,0.009544932
297180:5848,06/20/17 07:49:55,140,129,0.014832685,0.013386282
297181:5848,06/20/17 08:44:01,75,75,0.007071795,0.006422120
297211:5849,06/20/17 13:28:35,63,52,0.016540911,0.011203522
297215:5849,06/20/17 13:53:03,55,47,0.015203571,0.012287170
297218:5849,06/20/17 14:14:26,31,24,0.008333833,0.003701263
297219:5849,06/20/17 14:26:07,2694,2637,0.445885829,0.425228147
297224:5849,06/21/17 07:52:34,146,138,0.013813136,0.012659722
297225:5849,06/21/17 08:49:06,33,25,0.003035039,0.002194206
297227:5849,06/21/17 09:01:37,266,266,0.022832024,0.022146025
297281:5856,06/22/17 00:26:52,61,49,0.020060913,0.012670842
297282:5856,06/22/17 00:50:17,28,16,0.009083787,0.004481927
297283:5856,06/22/17 01:00:52,27,16,0.008620056,0.004329971
297284:5856,06/22/17 01:11:04,27,16,0.008495471,0.004437036
297285:5856,06/22/17 01:21:30,42,20,0.011262455,0.003953309
297286:5856,06/22/17 01:37:30,32,21,0.009730943,0.005497460
297287:5856,06/22/17 01:49:45,27,16,0.008089311,0.004121536
297288:5856,06/22/17 02:00:08,30,15,0.008865769,0.003977426
297289:5856,06/22/17 02:11:32,26,15,0.007540725,0.003924265
297290:5856,06/22/17 02:21:31,27,15,0.007777634,0.003821006
297291:5856,06/22/17 02:31:39,28,17,0.007955862,0.004316706
297292:5856,06/22/17 02:42:29,770,750,0.189559536,0.173872814
297293:5856,06/22/17 07:41:33,169,144,0.034604139,0.028077366
297296:5856,06/22/17 08:47:07,514,492,0.093250627,0.085837306
297308:5856,06/22/17 12:06:46,70,70,0.010766303,0.009503115
297359:5862,06/23/17 03:23:16,151,151,0.045904905,0.042603373
297411:5864,06/23/17 13:34:38,935,921,0.215534266,0.203214468
297424:5865,06/24/17 00:41:20,125,120,0.036555883,0.031871493
297425:5865,06/24/17 01:29:38,157,153,0.044863782,0.041994866
297426:5865,06/24/17 02:30:35,121,110,0.031966170,0.026950048
297427:5865,06/24/17 03:17:19,6,2,0.001564301,0.000007168
297428:5865,06/24/17 03:19:39,14,3,0.003632093,0.000007182
297429:5865,06/24/17 03:24:57,100,72,0.025280520,0.017366166
297430:5865,06/24/17 04:03:47,205,200,0.049607942,0.046272338
297431:5865,06/24/17 05:23:08,189,185,0.041994818,0.039197857
297432:5865,06/24/17 06:36:23,169,125,0.035721212,0.025592783
297433:5865,06/24/17 07:41:47,159,153,0.031799924,0.029638959
297434:5865,06/24/17 08:43:17,161,156,0.030295415,0.028677732
297435:5865,06/24/17 09:45:40,96,96,0.017195107,0.016818188
297467:5868,06/24/17 19:38:36,130,114,0.042110676,0.032970306
297468:5868,06/24/17 20:28:56,86,74,0.027926596,0.023129902
297469:5868,06/24/17 21:02:04,72,72,0.022111600,0.019502999
297474:5870,06/25/17 00:48:25,28,28,0.008990046,0.006599764
297483:5872,06/25/17 05:35:41,185,179,0.055487593,0.049861776
297484:5872,06/25/17 06:47:17,232,214,0.065729034,0.057870962
297485:5872,06/25/17 08:17:19,434,415,0.108154551,0.098886449
297486:5872,06/25/17 11:05:54,641,623,0.131005211,0.123695963
297487:5872,06/25/17 15:14:37,625,604,0.101952565,0.096303586
297488:5872,06/25/17 19:17:09,430,430,0.057863431,0.055723339
297494:5873,06/26/17 00:16:40,37,25,0.010682874,0.005741949
297495:5873,06/26/17 00:30:59,27,16,0.008942891,0.005051515
297496:5873,06/26/17 00:41:29,35,23,0.011530498,0.007001833
297497:5873,06/26/17 00:54:54,28,16,0.009057109,0.004672563
297498:5873,06/26/17 01:05:27,28,16,0.008912121,0.004586579
297499:5873,06/26/17 01:16:01,31,16,0.009695545,0.004633362
297500:5873,06/26/17 01:27:53,24,15,0.007381555,0.000000128
297501:5873,06/26/17 01:37:14,28,17,0.008495821,0.004806575
297502:5873,06/26/17 01:47:59,34,17,0.010216600,0.004689428
297503:5873,06/26/17 02:00:53,797,776,0.202821708,0.188621748
297504:5873,06/26/17 07:10:25,145,135,0.029554139,0.010946527
297505:5873,06/26/17 08:06:28,396,396,0.076296371,0.074256849
297557:5876,06/26/17 23:19:49,395,389,0.119779435,0.110171965
297558:5876,06/27/17 01:53:15,268,263,0.071149274,0.067141012
297559:5876,06/27/17 03:37:22,135,12,0.033137272,0.002904267
297560:5876,06/27/17 04:29:43,230,217,0.052033716,0.047763099
297562:5876,06/27/17 05:58:50,372,368,0.075089209,0.071713072
297563:5876,06/27/17 08:23:20,266,266,0.047500647,0.045929504
297598:5878,06/27/17 14:58:57,20,12,0.006313456,0.001642653
297599:5878,06/27/17 15:06:25,428,402,0.120399723,0.107104134
297603:5878,06/27/17 17:52:22,444,418,0.108607313,0.098963659
297604:5878,06/27/17 20:44:33,408,404,0.085022921,0.081560742
297605:5878,06/27/17 23:22:43,431,404,0.078201951,0.071045315
297606:5878,06/28/17 02:10:08,234,234,0.037251559,0.036344121
297620:5880,06/28/17 10:08:36,291,291,0.089028019,0.082940544
297656:5882,06/28/17 17:28:14,511,397,0.160864954,0.117161395
297657:5882,06/28/17 20:46:36,40,24,0.011408250,0.000872368
297658:5882,06/28/17 21:02:06,26,19,0.007304336,0.000017712
297659:5882,06/28/17 21:12:10,40,30,0.011060403,0.003269875
297660:5882,06/28/17 21:27:41,275,240,0.061127296,0.050833209
297661:5882,06/28/17 23:14:15,135,118,0.026104322,0.021446671
297662:5882,06/29/17 00:06:23,28,16,0.006679212,0.003492002
297663:5882,06/29/17 00:17:03,29,17,0.006836145,0.003617363
297664:5882,06/29/17 00:28:08,49,35,0.011365038,0.007100875
297665:5882,06/29/17 00:46:59,298,276,0.064536425,0.058126961
297666:5882,06/29/17 02:42:25,123,123,0.024574750,0.023141100
297669:5883,06/29/17 06:05:21,35,0,0.009831067,0
297670:5883,06/29/17 06:18:47,41,27,0.013785542,0.008623958
297671:5883,06/29/17 06:34:33,52,40,0.016887665,0.012461538
297672:5883,06/29/17 06:54:46,26,15,0.008254004,0.004536290
297673:5883,06/29/17 07:04:45,27,16,0.008386949,0.004296782
297674:5883,06/29/17 07:15:12,211,183,0.065100586,0.053420416
297675:5883,06/29/17 08:36:58,500,465,0.135375493,0.121856211
297678:5883,06/29/17 11:50:57,3,3,0.000480166,0.000061885
297713:5885,06/29/17 15:49:15,13,1,0.002184936,0
297714:5885,06/29/17 15:53:58,18,7,0.005778132,0.000079909
297715:5885,06/29/17 16:00:39,16,14,0.004927491,0.000009093
297722:5887,06/29/17 20:29:31,394,319,0.127068124,0.094336363
297723:5887,06/29/17 23:02:24,224,224,0.065192814,0.062800300
298653:5919,07/09/17 18:55:02,29,29,0.000001453,0.000001097
298673:5920,07/09/17 23:30:00,24,14,0.000000579,0.000000299
298674:5920,07/09/17 23:51:01,103,71,0.000002561,0.000001565
298678:5920,07/10/17 00:30:47,188,162,0.000004599,0.000003845
298679:5920,07/10/17 01:43:32,105,33,0.000002524,0.000000562
298809:5930,07/11/17 08:55:04,416,416,0.002579740,0.002435454
298853:5934,07/12/17 03:19:48,535,530,0.025403698,0.023982261
298854:5934,07/12/17 06:47:33,79,72,0.000098553,0.000077575
298855:5934,07/12/17 07:18:01,97,97,0.000131684,0.000118018
298996:5942,07/14/17 07:35:31,198,186,0.030847987,0.023005809
298997:5942,07/14/17 08:52:13,53,47,0.008053984,0.005265843
298998:5942,07/14/17 09:12:28,19,2,0.002843549,0.000202673
299000:5942,07/14/17 09:19:49,84,84,0.011515755,0.008264839
299042:5946,07/14/17 20:10:40,27,27,0.004831218,0.002404681
299061:5950,07/15/17 00:59:50,320,313,0.080248486,0.065126799
299062:5950,07/15/17 03:04:08,304,296,0.069729156,0.058905889
299064:5950,07/15/17 05:02:14,110,84,0.023591224,0.016228900
299065:5950,07/15/17 05:44:49,382,335,0.074805692,0.059239085
299067:5950,07/15/17 08:12:54,465,465,0.076917442,0.068981215
299084:5952,07/15/17 14:47:18,86,0,0.023609578,0
299094:5952,07/15/17 15:20:43,16,2,0.004523845,0
299096:5952,07/15/17 15:26:51,98,98,0.027166846,0.024457402
299149:5954,07/16/17 01:39:54,445,445,0.121591994,0.108753179
299178:5958,07/16/17 12:24:08,83,73,0.022321090,0.016341426
299180:5958,07/16/17 12:56:18,114,72,0.031308597,0.016702769
299183:5958,07/16/17 13:40:29,5,1,0.001337216,0.000020824
299184:5958,07/16/17 13:42:24,577,555,0.139835228,0.123264916
299185:5958,07/16/17 17:26:14,121,121,0.025839269,0.023635181
299316:5960,07/18/17 04:52:02,64,53,0.016791853,0.011147915
299317:5960,07/18/17 05:16:43,46,36,0.012902471,0.008721917
299318:5960,07/18/17 05:34:32,59,47,0.016193122,0.011384055
299321:5960,07/18/17 05:57:14,12,2,0.003240155,0
299322:5960,07/18/17 06:01:39,20,5,0.005366889,0.000000042
299324:5960,07/18/17 06:09:13,34,22,0.008995725,0.004557587
299325:5960,07/18/17 06:22:04,201,190,0.051522231,0.044660910
299326:5960,07/18/17 07:40:06,34,22,0.008386502,0.004955227
299327:5960,07/18/17 07:53:09,83,69,0.019980643,0.015178467
299329:5960,07/18/17 08:25:06,173,173,0.039947152,0.037702053
299368:5962,07/18/17 16:08:13,147,134,0.045278613,0.032980892
299369:5962,07/18/17 17:05:01,398,302,0.113985819,0.078459651
299370:5962,07/18/17 19:39:20,707,707,0.162743138,0.152523553
299380:5963,07/19/17 02:33:30,225,196,0.069780816,0.054723387
299381:5963,07/19/17 04:00:43,47,47,0.013714175,0.012192921
299392:5965,07/19/17 07:23:30,5,0,0.001622802,0
299393:5965,07/19/17 07:25:06,11,5,0.003671398,0.000000013
299394:5965,07/19/17 07:29:05,35,26,0.009772553,0.005969819
299395:5965,07/19/17 07:42:23,188,182,0.058325045,0.039129215
299396:5965,07/19/17 08:55:05,83,83,0.024407727,0.017486520
299419:5966,07/19/17 12:02:35,3,0,0.000920322,0
299420:5966,07/19/17 12:03:36,52,52,0.016293830,0.013552492
299443:5971,07/19/17 23:52:29,127,127,0.043353433,0.035623124
299450:5974,07/20/17 04:36:16,54,54,0.014923633,0.013015861
299477:5976,07/20/17 12:41:37,65,56,0.021244574,0.011780604
299478:5976,07/20/17 13:06:43,184,172,0.053881099,0.045187917
299479:5976,07/20/17 14:18:01,129,117,0.037183597,0.029876999
299480:5976,07/20/17 15:07:52,740,711,0.184768435,0.165544310
299481:5976,07/20/17 19:55:18,1260,1260,0.210485645,0.196445419
299592:5979,07/21/17 17:03:42,112,103,0.036671724,0.026371941
299593:5979,07/21/17 17:47:13,906,892,0.223288757,0.203919946
299594:5979,07/21/17 23:38:54,333,309,0.069507634,0.060686211
299595:5979,07/22/17 01:48:02,148,138,0.028337937,0.025166802
299597:5979,07/22/17 02:45:16,560,560,0.092702881,0.086019844
299614:5980,07/22/17 11:39:51,391,384,0.061426415,0.057231537
299616:5980,07/22/17 14:11:45,562,544,0.074786753,0.070846201
299617:5980,07/22/17 17:49:56,75,75,0.008531887,0.008431866
299649:5984,07/24/17 01:53:41,315,315,0.108819336,0.089568694
299996:6012,07/27/17 12:17:58,1255,1255,0.000054755,0.000053974
300007:6015,07/28/17 01:23:32,22,22,0.000001142,0.000000734
300015:6016,07/28/17 03:53:09,161,152,0.000009733,0.000008734
300016:6016,07/28/17 04:55:41,56,50,0.000003558,0.000003156
300017:6016,07/28/17 05:17:09,55,46,0.000003477,0.000002865
300018:6016,07/28/17 05:38:24,287,281,0.000010359,0.000009862
300019:6016,07/28/17 07:29:44,654,648,0.000023920,0.000023439
300027:6016,07/28/17 11:43:43,119,113,0.000007564,0.000007060
300029:6016,07/28/17 12:29:48,271,262,0.000006704,0.000006097
300043:6016,07/28/17 14:14:46,343,334,0.000022030,0.000021269
300049:6016,07/28/17 16:27:59,72,65,0.000004362,0.000003686
300050:6016,07/28/17 16:55:57,495,495,0.000021727,0.000021272
300079:6018,07/28/17 23:53:06,30,30,0.001971120,0.001658442
300087:6019,07/29/17 06:22:21,209,200,0.014097136,0.013240232
300088:6019,07/29/17 07:43:15,317,317,0.000408408,0.000370414
300104:6020,07/29/17 12:11:33,9,1,0.002629003,0
300105:6020,07/29/17 12:14:52,29,21,0.008565840,0.001261251
300106:6020,07/29/17 12:26:04,83,74,0.027419489,0.019537401
300107:6020,07/29/17 12:58:01,49,49,0.015510181,0.013984136
300117:6021,07/29/17 16:44:57,37,37,0.010436120,0.006931641
300122:6024,07/29/17 21:41:39,1278,1253,0.332818216,0.294939854
300123:6024,07/30/17 05:57:59,613,603,0.109133161,0.101353719
300124:6024,07/30/17 09:56:00,592,592,0.081410605,0.076985269
300155:6026,07/30/17 18:48:30,1198,1191,0.313823285,0.282129790
300156:6026,07/31/17 02:33:41,98,64,0.019588502,0.011779517
300157:6026,07/31/17 03:11:37,1116,1116,0.180120279,0.169369818
300226:6030,07/31/17 17:02:03,411,411,0.132824895,0.116851630
300233:6031,07/31/17 22:07:20,125,113,0.042006004,0.031804604
300234:6031,07/31/17 22:55:49,67,59,0.021974054,0.014608522
300235:6031,07/31/17 23:21:52,190,181,0.059892576,0.049530363
300236:6031,08/01/17 00:35:36,188,182,0.055903327,0.048966548
300237:6031,08/01/17 01:48:17,722,717,0.177029065,0.163883470
300238:6031,08/01/17 06:28:35,330,322,0.063574213,0.055949300
300239:6031,08/01/17 08:36:42,243,207,0.041653419,0.031516886
300240:6031,08/01/17 10:10:56,367,361,0.053842352,0.048613950
300280:6035,08/02/17 04:44:15,659,649,0.202820884,0.156201813
300281:6035,08/02/17 08:59:57,22,8,0.005941348,0.001593192
300282:6035,08/02/17 09:08:14,186,182,0.049055458,0.042988881
300283:6035,08/02/17 10:20:31,39,26,0.009774727,0.005816356
300284:6035,08/02/17 10:35:38,752,752,0.157998619,0.148673370
300364:6041,08/03/17 12:11:49,35,22,0.011192856,0.004373294
300365:6041,08/03/17 12:25:03,25,13,0.007471277,0.003577725
300366:6041,08/03/17 12:34:35,26,14,0.006958329,0.002874508
300367:6041,08/03/17 12:44:42,25,13,0.007745526,0.002968303
300368:6041,08/03/17 12:54:04,25,13,0.007628617,0.003021626
300369:6041,08/03/17 13:03:35,25,13,0.007524616,0.003261604
300370:6041,08/03/17 13:13:08,25,13,0.007436387,0.003210961
300371:6041,08/03/17 13:22:40,25,13,0.007361816,0.002994590
300372:6041,08/03/17 13:32:05,20,8,0.005956011,0.001983119
300373:6041,08/03/17 13:39:36,24,13,0.007076916,0.003149679
300374:6041,08/03/17 13:48:53,25,13,0.007289144,0.003162389
300375:6041,08/03/17 13:58:15,95,95,0.026942164,0.025077490
300386:6044,08/03/17 18:45:59,7,0,0.002244619,0
300389:6044,08/03/17 18:48:33,157,143,0.051231618,0.032399539
300390:6044,08/03/17 19:49:28,25,13,0.008116366,0.003439222
300391:6044,08/03/17 19:58:56,24,13,0.007700208,0.003291605
300392:6044,08/03/17 20:08:10,26,14,0.008213717,0.003398127
300393:6044,08/03/17 20:17:56,25,13,0.007793788,0.003458400
300394:6044,08/03/17 20:27:18,25,13,0.007698478,0.003319688
300395:6044,08/03/17 20:36:48,24,13,0.007408360,0.003367512
300396:6044,08/03/17 20:46:06,25,13,0.007760055,0.003248488
300397:6044,08/03/17 20:55:33,25,13,0.007665200,0.003485863
300398:6044,08/03/17 21:05:16,26,14,0.007874324,0.003578643
300399:6044,08/03/17 21:15:04,30,17,0.008959564,0.004232691
300400:6044,08/03/17 21:26:33,694,672,0.178708936,0.161513768
300401:6044,08/04/17 01:56:03,676,676,0.127606426,0.120472359
300459:6046,08/04/17 12:15:45,311,295,0.097837170,0.082017611
300461:6046,08/04/17 14:16:24,104,88,0.030796057,0.023737911
300462:6046,08/04/17 14:56:36,109,91,0.030813988,0.023357553
300463:6046,08/04/17 15:38:40,144,124,0.038400233,0.030793470
300464:6046,08/04/17 16:34:29,285,265,0.070780541,0.059371361
300466:6046,08/04/17 18:25:04,656,643,0.132122561,0.121744279
300467:6046,08/04/17 22:39:50,569,569,0.086245963,0.080668868
300497:6048,08/05/17 07:31:21,159,154,0.055391507,0.040901334
300498:6048,08/05/17 08:32:59,20,15,0.006923762,0.000018198
300499:6048,08/05/17 08:40:40,10,3,0.003434010,0.000003329
300500:6048,08/05/17 08:44:22,5,5,0.001694216,0.000007392
300514:6050,08/05/17 12:00:02,121,116,0.041144333,0.029799006
300515:6050,08/05/17 12:46:59,1038,1013,0.291359929,0.264629745
300516:6050,08/05/17 19:30:10,119,109,0.025569619,0.019603000
300517:6050,08/05/17 20:16:08,975,936,0.169284376,0.154819467
300532:6052,08/06/17 07:01:10,46,0,0.014524237,0
300538:6052,08/06/17 07:18:49,44,36,0.015244102,0.010398721
300539:6052,08/06/17 07:35:55,259,210,0.082669152,0.061099596
300545:6052,08/06/17 09:16:34,123,92,0.037158141,0.026097071
300548:6052,08/06/17 10:04:06,25,13,0.007289089,0.003244915
300551:6052,08/06/17 10:13:33,97,89,0.027485675,0.023753601
300552:6052,08/06/17 10:51:11,94,54,0.025820942,0.013554877
300558:6052,08/06/17 11:27:26,556,541,0.133283963,0.120850452
300560:6052,08/06/17 15:03:15,859,859,0.151976095,0.141986423
300574:6053,08/07/17 02:50:11,115,99,0.036097952,0.024533790
300575:6053,08/07/17 03:34:38,82,76,0.025996102,0.012558143
300576:6053,08/07/17 04:06:31,1208,1208,0.300106564,0.280886127
300631:6054,08/07/17 15:32:41,193,183,0.063103184,0.046779996
300632:6054,08/07/17 16:47:35,29,20,0.009182616,0.004065109
300633:6054,08/07/17 16:58:51,473,448,0.138724064,0.120792956
300634:6054,08/07/17 20:02:31,14,3,0.003791518,0
300635:6054,08/07/17 20:07:40,196,176,0.050808903,0.042292535
300636:6054,08/07/17 21:23:44,1580,1580,0.288033465,0.270801356
300673:6055,08/08/17 10:44:27,50,41,0.015170375,0.008160634
300674:6055,08/08/17 11:03:35,39,30,0.012802436,0.007854279
300675:6055,08/08/17 11:18:43,34,25,0.011183308,0.002899315
300676:6055,08/08/17 11:31:55,28,28,0.008698503,0.007587714
300742:6057,08/08/17 16:59:39,314,314,0.103878705,0.088452807
300777:6060,08/09/17 04:46:49,499,491,0.149925807,0.130719728
300780:6060,08/09/17 08:00:36,385,336,0.098536394,0.079606539
300781:6060,08/09/17 10:30:06,51,33,0.011907348,0.007422457
300785:6060,08/09/17 10:49:33,1279,1279,0.229391275,0.215753740
300806:6061,08/09/17 21:45:24,197,184,0.071995294,0.054894892
300811:6061,08/09/17 23:01:49,524,505,0.170110554,0.146180119
300812:6061,08/10/17 02:25:24,71,58,0.020293597,0.014797894
300816:6061,08/10/17 02:52:49,161,155,0.044034141,0.036121776
300817:6061,08/10/17 03:55:18,497,497,0.115524757,0.106544112
301046:6072,08/12/17 01:31:58,79,79,0.005707041,0.004357257
301086:6079,08/14/17 01:32:54,315,315,0.022650405,0.019684521
301141:6082,08/14/17 12:09:37,29,21,0.003376753,0.001264139
301142:6082,08/14/17 12:20:37,903,903,0.100075989,0.096332452
301161:6084,08/14/17 21:37:22,777,764,0.105114653,0.098314629
301165:6084,08/15/17 02:39:09,150,150,0.016244121,0.015584819
301179:6086,08/15/17 07:57:19,28,21,0.004849819,0.002339505
301180:6086,08/15/17 08:08:13,100,92,0.017237565,0.014830088
301183:6086,08/15/17 08:46:47,305,305,0.048936483,0.045906924
301281:6089,08/15/17 23:06:32,135,123,0.022555106,0.018921178
301283:6089,08/15/17 23:58:46,892,892,0.125083246,0.120314984
301298:6090,08/16/17 09:10:06,925,925,0.163642973,0.156182322
301323:6091,08/16/17 18:20:18,966,966,0.175630222,0.165992206
301330:6093,08/17/17 05:30:14,337,337,0.069296346,0.065182060
301359:6094,08/17/17 11:06:18,292,292,0.061707296,0.057887623
301383:6096,08/17/17 15:36:36,18,10,0.002907898,0.000464183
301384:6096,08/17/17 15:43:36,479,479,0.098427009,0.094537360
301391:6097,08/17/17 21:42:41,192,178,0.040050374,0.035003104
301392:6097,08/17/17 22:57:14,636,627,0.115871109,0.110226143
301393:6097,08/18/17 03:04:00,36,30,0.005756009,0.002770070
301394:6097,08/18/17 03:17:56,22,14,0.003491545,0.000016165
301395:6097,08/18/17 03:26:29,33,8,0.005179162,0.000007048
301396:6097,08/18/17 03:39:05,42,26,0.006492635,0.003739861
301397:6097,08/18/17 03:55:16,741,722,0.099876344,0.094450454
301398:6097,08/18/17 08:43:04,19,10,0.002237232,0.000559291
301399:6097,08/18/17 08:50:12,123,123,0.014004885,0.013028054
301417:6098,08/18/17 12:40:26,337,337,0.073542604,0.069388424
301447:6104,08/19/17 11:11:19,486,476,0.086318437,0.080313006
301448:6104,08/19/17 14:20:04,335,325,0.050991963,0.048021203
301449:6104,08/19/17 16:30:03,405,398,0.053363896,0.049332905
301450:6104,08/19/17 19:07:02,187,187,0.021515980,0.020199163
301461:6105,08/19/17 22:59:52,558,558,0.105934591,0.098646089
301472:6106,08/20/17 14:11:21,831,804,0.146941140,0.138118693
301473:6106,08/20/17 19:34:00,16,10,0.000943850,0.000000108
301474:6106,08/20/17 19:40:13,18,10,0.001242907,0.000000084
301475:6106,08/20/17 19:47:00,18,12,0.002724265,0.001558199
301476:6106,08/20/17 19:53:54,892,854,0.115978017,0.107777845
301480:6106,08/21/17 01:40:08,185,185,0.019374829,0.018183344
301519:6110,08/21/17 13:12:42,211,205,0.038444788,0.033617572
301521:6110,08/21/17 14:34:38,28,3,0.004890649,0.000009058
301524:6110,08/21/17 14:45:22,302,268,0.049702961,0.042256578
301525:6110,08/21/17 16:42:35,66,57,0.010019774,0.008163532
301526:6110,08/21/17 17:08:00,12,3,0.001790668,0.000000003
301528:6110,08/21/17 17:12:32,25,16,0.003720033,0.002132594
301529:6110,08/21/17 17:22:10,58,49,0.008635354,0.006578466
301530:6110,08/21/17 17:44:34,129,107,0.018381971,0.014335108
301531:6110,08/21/17 18:34:34,408,393,0.051792217,0.048371775
301532:6110,08/21/17 21:12:59,622,622,0.064997301,0.063005551
301567:6114,08/22/17 08:46:01,364,364,0.067011842,0.063657521
301627:6116,08/22/17 23:20:56,891,891,0.134644879,0.131848718
301664:6119,08/23/17 12:23:13,424,414,0.075196544,0.070697636
301665:6119,08/23/17 15:07:51,490,490,0.073472025,0.071503409
301694:6123,08/24/17 04:22:36,71,71,0.020161827,0.018352234
301912:6136,08/26/17 13:56:13,388,383,0.047443446,0.044593028
301913:6136,08/26/17 16:26:53,60,55,0.006836526,0.005957840
301914:6136,08/26/17 16:50:05,353,353,0.036614966,0.035642395
301941:6138,08/27/17 09:31:15,542,542,0.077448276,0.074887252
301959:6140,08/27/17 18:22:39,1918,1911,0.284926509,0.276129180
301960:6140,08/28/17 06:47:35,166,166,0.015835624,0.015178697
301969:6141,08/28/17 10:21:57,48,41,0.008740697,0.006629929
301970:6141,08/28/17 10:40:15,126,126,0.024254916,0.023535624
301984:6142,08/28/17 14:12:14,308,302,0.060355594,0.055860205
301985:6142,08/28/17 16:11:52,368,360,0.063401582,0.060037889
301986:6142,08/28/17 18:34:30,384,379,0.056605621,0.054356914
301987:6142,08/28/17 21:03:26,1134,1134,0.125432371,0.122984217
301997:6143,08/29/17 06:54:09,375,364,0.070424512,0.065208886
301998:6143,08/29/17 09:19:31,1728,1728,0.224075615,0.219378114
302019:6146,08/30/17 03:40:07,57,57,0.010400476,0.009655517
302026:6147,08/30/17 06:47:59,53,43,0.010107883,0.005147908
302027:6147,08/30/17 07:08:24,22,9,0.004577679,0.000000074
302029:6147,08/30/17 07:16:38,121,92,0.024297681,0.015281544
302030:6147,08/30/17 08:03:36,13,4,0.002518959,0.000000082
302031:6147,08/30/17 08:08:29,827,818,0.136039480,0.129133210
302032:6147,08/30/17 13:29:26,13,2,0.001800752,0.000008509
302033:6147,08/30/17 13:34:23,53,44,0.007238256,0.005173654
302034:6147,08/30/17 13:54:42,24,12,0.003231650,0.000483548
302036:6147,08/30/17 14:03:43,40,32,0.005321829,0.004108399
302037:6147,08/30/17 14:19:02,25,19,0.003283225,0.000898746
302038:6147,08/30/17 14:28:27,19,10,0.002472347,0.000574952
302040:6147,08/30/17 14:35:43,176,168,0.022421304,0.020954841
302041:6147,08/30/17 15:44:00,73,65,0.008865127,0.007738133
302042:6147,08/30/17 16:12:11,523,516,0.056857266,0.054983585
302043:6147,08/30/17 19:35:17,243,243,0.022562356,0.021799897
302131:6152,08/31/17 12:17:40,925,925,0.120884426,0.116556378
302159:6155,09/01/17 00:36:59,112,112,0.017498960,0.016421185
302163:6156,09/01/17 03:32:36,1218,1193,0.154423606,0.146749609
302165:6156,09/01/17 11:25:29,86,80,0.007821051,0.006889986
302166:6156,09/01/17 11:58:48,25,25,0.002405147,0.002022858
302225:6158,09/01/17 18:38:12,887,887,0.120150439,0.116422855
302228:6159,09/02/17 03:28:28,250,244,0.042067871,0.038983464
302229:6159,09/02/17 05:05:33,459,459,0.069331835,0.067690034
302239:6160,09/02/17 10:46:21,20,10,0.002652182,0.000002766
302240:6160,09/02/17 10:53:49,967,967,0.142761056,0.139256879
302262:6161,09/03/17 03:30:51,440,431,0.080999950,0.076333770
302263:6161,09/03/17 06:21:33,1258,1258,0.169795566,0.165823636
302277:6165,09/03/17 22:44:06,418,399,0.061575365,0.054556480
302278:6165,09/04/17 01:26:12,952,940,0.106735715,0.102823764
302279:6165,09/04/17 07:35:57,80,70,0.007286406,0.005862909
302280:6165,09/04/17 08:06:51,159,159,0.013402577,0.012878641
302322:6167,09/04/17 17:42:16,850,850,0.100843949,0.097745562
302328:6168,09/05/17 01:48:17,705,705,0.099217646,0.095879663
302337:6169,09/05/17 09:16:07,154,129,0.026751582,0.020616118
302342:6169,09/05/17 10:15:41,95,72,0.016103496,0.009401028
302343:6169,09/05/17 10:52:16,104,97,0.017008257,0.015318244
302344:6169,09/05/17 11:32:28,524,513,0.076408537,0.069135754
302349:6169,09/05/17 14:55:44,17,9,0.002116478,0.000004656
302350:6169,09/05/17 15:02:18,149,149,0.018380972,0.017618862
302388:6170,09/05/17 18:45:52,700,700,0.133428204,0.128241469
302392:6171,09/06/17 01:56:27,368,358,0.081983176,0.075415572
302393:6171,09/06/17 04:19:09,893,893,0.161668835,0.157637761
302448:6174,09/06/17 20:47:58,1913,1913,0.318289984,0.309929007
302472:6175,09/07/17 11:26:12,790,783,0.162808463,0.155113607
302473:6175,09/07/17 16:32:57,423,397,0.070669311,0.060465031
302474:6175,09/07/17 19:17:17,311,305,0.046381221,0.043413267
302475:6175,09/07/17 21:17:58,12,2,0.001699484,0.000099576
302476:6175,09/07/17 21:22:33,265,265,0.035141768,0.033705045
302479:6176,09/08/17 01:18:33,316,316,0.072883245,0.069126871
302482:6177,09/08/17 06:04:08,2,0,0.000500165,0
302484:6177,09/08/17 06:04:35,188,177,0.043339850,0.037191781
302485:6177,09/08/17 07:17:25,930,922,0.180521954,0.173348266
302486:6177,09/08/17 13:18:44,13,4,0.002128731,0.000006458
302487:6177,09/08/17 13:23:30,12,4,0.001958709,0.000007983
302488:6177,09/08/17 13:27:55,13,3,0.002110776,0.000400438
302489:6177,09/08/17 13:32:50,13,4,0.002078585,0.000042754
302490:6177,09/08/17 13:37:35,11,3,0.001772669,0.000004280
302491:6177,09/08/17 13:41:49,10,2,0.001605825,0.000004780
302492:6177,09/08/17 13:45:32,63,54,0.009991450,0.008372599
302493:6177,09/08/17 14:09:59,9,2,0.001409667,0.000141710
302494:6177,09/08/17 14:13:24,624,624,0.089068701,0.086591532
302509:6179,09/08/17 22:56:18,64,64,0.014728197,0.013724956
302513:6180,09/09/17 02:17:50,58,58,0.013810469,0.012766506
302522:6182,09/09/17 07:20:50,22,14,0.003941116,0.000974501
302523:6182,09/09/17 07:29:07,64,54,0.014945573,0.010748271
302524:6182,09/09/17 07:53:40,14,5,0.003214837,0.000000066
302525:6182,09/09/17 07:58:46,778,771,0.153079899,0.144567392
302526:6182,09/09/17 13:00:58,584,584,0.090604908,0.088426840
302548:6185,09/10/17 01:58:21,89,83,0.019258670,0.015933472
302549:6185,09/10/17 02:32:45,7,1,0.001555301,0.000007850
302550:6185,09/10/17 02:35:21,17,6,0.003749644,0.000780465
302551:6185,09/10/17 02:41:42,17,6,0.003717878,0.000103949
302552:6185,09/10/17 02:48:15,7,2,0.001518983,0.000007993
302553:6185,09/10/17 02:50:55,192,187,0.039854166,0.037036843
302554:6185,09/10/17 04:05:18,11,3,0.002179221,0.000091438
302555:6185,09/10/17 04:09:27,53,37,0.010549426,0.002035830
302563:6186,09/10/17 07:11:31,15,10,0.002543461,0.000638230
302564:6186,09/10/17 07:17:02,11,2,0.002040920,0.000012249
302565:6186,09/10/17 07:21:03,14,3,0.003237646,0.000149416
302566:6186,09/10/17 07:26:29,71,63,0.016031219,0.013755472
302567:6186,09/10/17 07:53:58,43,34,0.009481655,0.007306177
302569:6186,09/10/17 08:10:35,10,1,0.002138679,0.000041473
302570:6186,09/10/17 08:14:23,48,39,0.010262319,0.007925524
302571:6186,09/10/17 08:32:42,45,36,0.009401454,0.007292680
302572:6186,09/10/17 08:49:58,296,286,0.058697548,0.054796394
302573:6186,09/10/17 10:44:44,1291,1291,0.198358218,0.193531237
302596:6189,09/11/17 03:27:59,946,936,0.183612549,0.176037022
302597:6189,09/11/17 09:35:10,1076,1076,0.150604152,0.147088586
302634:6191,09/12/17 01:21:09,610,610,0.128535221,0.121066011
302635:6191,09/12/17 05:18:01,1298,1298,0.196460052,0.190695859
302646:6192,09/12/17 16:22:31,18,9,0.002988087,0.000208795
302649:6192,09/12/17 16:29:19,11,3,0.002650747,0.000000002
302650:6192,09/12/17 16:33:20,10,3,0.002388996,0.000000003
302651:6192,09/12/17 16:37:00,157,146,0.035701572,0.030035338
302654:6192,09/12/17 17:38:00,319,319,0.065783771,0.064148915
302660:6193,09/12/17 22:19:52,19,8,0.003859579,0.000423979
302661:6193,09/12/17 22:27:07,77,67,0.016444504,0.009465408
302662:6193,09/12/17 22:56:56,10,2,0.002272843,0.000008077
302663:6193,09/12/17 23:00:30,712,712,0.138844113,0.134593186
302674:6194,09/13/17 07:08:51,472,457,0.014345991,0.013617586
302676:6194,09/13/17 10:12:01,57,57,0.001668260,0.001637616
303719:6230,09/22/17 18:02:58,164,164,0.000022509,0.000022118
303790:6236,09/23/17 11:51:56,81,77,0.000524241,0.000473528
303793:6236,09/23/17 12:52:31,17,12,0.000116722,0.000074310
303794:6236,09/23/17 12:59:07,29,26,0.000197068,0.000135125
303795:6236,09/23/17 13:10:23,402,402,0.002476434,0.002083811
303817:6238,09/23/17 18:52:06,189,181,0.014347638,0.013781687
303818:6238,09/23/17 20:05:17,36,26,0.000050232,0.000033665
303819:6238,09/23/17 20:19:03,667,667,0.000917569,0.000866221
303824:6239,09/24/17 02:56:10,727,717,0.120367348,0.098489563
303825:6239,09/24/17 07:38:22,185,185,0.023900997,0.023320504
303832:6240,09/24/17 11:11:16,1870,1870,0.332931415,0.322963952
303838:6241,09/25/17 01:47:27,1997,1997,0.400942772,0.387133166
303885:6243,09/25/17 19:08:32,2001,2001,0.417181918,0.401017328
303948:6245,09/26/17 12:46:34,1782,1777,0.390415218,0.371932283
303989:6245,09/27/17 00:18:36,113,113,0.015491744,0.011964109
303998:6247,09/27/17 07:04:04,277,264,0.083442817,0.073232684
303999:6247,09/27/17 08:51:42,751,747,0.180569308,0.172738813
304000:6247,09/27/17 13:43:21,59,59,0.011011455,0.010800075
304062:6252,09/27/17 20:36:38,1970,1970,0.395862379,0.382775064
304119:6253,09/28/17 12:28:01,84,78,0.026601548,0.021846162
304120:6253,09/28/17 13:00:38,257,252,0.078994586,0.072288318
304125:6253,09/28/17 14:40:12,1778,1778,0.348432242,0.338951604
304144:6255,09/29/17 05:27:09,2599,2599,0.559194736,0.535852321
304158:6258,09/30/17 05:43:08,1986,1986,0.387003719,0.374042918
304169:6259,09/30/17 22:10:51,1693,1685,0.354279348,0.339177976
304170:6259,10/01/17 09:08:28,629,629,0.078033660,0.076438188
304196:6261,10/01/17 17:45:56,48,43,0.013996183,0.004233206
304197:6261,10/01/17 18:04:30,15,8,0.004928573,0.002277598
304198:6261,10/01/17 18:10:21,100,74,0.032765002,0.005541152
304199:6261,10/01/17 18:49:03,18,14,0.005684638,0.000620883
304200:6261,10/01/17 18:55:56,323,323,0.093164763,0.088381640
304204:6262,10/01/17 23:40:41,557,557,0.163846966,0.153706180
304209:6263,10/02/17 05:32:40,431,431,0.133961197,0.123277695
304291:6266,10/02/17 17:39:26,32,24,0.009285903,0.003573294
304292:6266,10/02/17 17:51:42,1813,1813,0.378019385,0.356895975
304333:6268,10/03/17 11:48:43,1592,1592,0.384659689,0.368319707
304354:6269,10/04/17 03:17:12,218,218,0.073334263,0.068924581
304366:6271,10/04/17 09:19:35,1838,1838,0.439183031,0.422008188
304446:6272,10/05/17 00:46:01,82,74,0.029163890,0.019361225
304447:6272,10/05/17 01:17:36,1655,1645,0.389166712,0.369788418
304448:6272,10/05/17 12:00:30,19,8,0.002848588,0.001150453
304449:6272,10/05/17 12:07:34,19,2,0.002822977,0.000271523
304451:6272,10/05/17 12:14:42,66,54,0.009596926,0.007415690
304452:6272,10/05/17 12:40:09,18,18,0.002564936,0.002383436
304505:6275,10/05/17 18:52:29,32,28,0.011251095,0.008016594
304506:6275,10/05/17 19:04:50,380,370,0.127845051,0.119535842
304507:6275,10/05/17 21:32:15,244,235,0.071689890,0.050591787
304508:6275,10/05/17 23:07:03,1330,1330,0.255546844,0.248684835
304562:6276,10/06/17 12:29:46,800,800,0.237524876,0.223311425
304616:6278,10/06/17 22:14:20,956,956,0.271554880,0.256092033
304625:6279,10/07/17 07:35:06,473,464,0.158467791,0.136652338
304626:6279,10/07/17 10:38:44,10,10,0.002837022,0.002614070
304654:6283,10/08/17 01:24:29,658,648,0.209401965,0.174160421
304655:6283,10/08/17 05:39:51,1202,1202,0.240005328,0.230947479
304661:6284,10/08/17 15:49:02,190,187,0.065512430,0.055641507
304662:6284,10/08/17 17:02:49,151,147,0.048568452,0.043509010
304663:6284,10/08/17 18:01:29,691,691,0.185745624,0.177282437
304671:6285,10/09/17 00:42:11,1151,1141,0.328072392,0.308887419
304672:6285,10/09/17 08:09:10,67,67,0.013846852,0.013351050
304737:6287,10/09/17 19:52:23,84,77,0.028969427,0.024452851
304738:6287,10/09/17 20:24:42,1686,1677,0.427518980,0.409354391
304739:6287,10/10/17 07:19:31,16,13,0.002516152,0.001862506
304740:6287,10/10/17 07:25:27,284,284,0.041659542,0.040531878
304776:6288,10/10/17 12:07:32,52,43,0.017908366,0.009766905
304777:6288,10/10/17 12:27:41,511,503,0.168629798,0.158349277
304778:6288,10/10/17 15:45:57,1307,1307,0.275868500,0.267913311
304797:6291,10/11/17 07:03:22,2931,2931,0.585083396,0.562343910
305040:6297,10/13/17 19:49:31,119,108,0.041009189,0.032265282
305043:6297,10/13/17 20:35:38,63,54,0.021819307,0.017654341
305044:6297,10/13/17 20:59:59,338,326,0.109857263,0.099705125
305045:6297,10/13/17 23:11:07,877,873,0.212311713,0.202352038
305046:6297,10/14/17 04:51:45,707,707,0.114590615,0.111455509
305059:6298,10/14/17 11:43:50,521,514,0.176478324,0.158599087
305060:6298,10/14/17 15:05:59,10,4,0.003408591,0.000000002
305061:6298,10/14/17 15:09:46,10,3,0.003384890,0.000000002
305062:6298,10/14/17 15:13:17,13,5,0.004365592,0.001305638
305063:6298,10/14/17 15:18:15,42,35,0.013819522,0.009565485
305064:6298,10/14/17 15:34:27,2052,2052,0.392533375,0.380667753
305081:6300,10/15/17 09:04:25,1061,1061,0.335240078,0.315360131
305112:6303,10/15/17 23:06:13,1471,1457,0.422773791,0.401308791
305113:6303,10/16/17 08:37:40,72,67,0.013926453,0.012488786
305114:6303,10/16/17 09:05:22,538,538,0.088906201,0.086594380
305178:6304,10/16/17 17:19:03,59,55,0.020468054,0.017507485
305179:6304,10/16/17 17:41:42,24,17,0.008364352,0.003856497
305180:6304,10/16/17 17:50:42,12,5,0.004163194,0.000554954
305181:6304,10/16/17 17:55:03,15,7,0.005268759,0.000585574
305182:6304,10/16/17 18:00:34,12,5,0.004173530,0.000951367
305183:6304,10/16/17 18:04:56,271,262,0.094095608,0.077442133
305184:6304,10/16/17 19:50:14,11,8,0.003777225,0.000103732
305185:6304,10/16/17 19:54:31,12,4,0.004081730,0.000036540
305186:6304,10/16/17 19:58:49,443,432,0.135531785,0.122445382
305187:6304,10/16/17 22:50:40,43,22,0.011408700,0.000000612
305188:6304,10/16/17 23:07:05,1007,1007,0.205265205,0.198944501
305202:6305,10/17/17 08:17:42,669,653,0.227125352,0.208774406
305203:6305,10/17/17 12:37:31,111,99,0.033585737,0.028727912
305204:6305,10/17/17 13:20:31,1235,1235,0.263694781,0.255236884
305207:6306,10/17/17 23:33:17,1036,1028,0.334180273,0.318603658
305208:6306,10/18/17 06:15:41,374,374,0.086803416,0.083188779
305234:6307,10/18/17 10:59:05,59,49,0.020598948,0.013286806
305235:6307,10/18/17 11:21:57,18,8,0.006275182,0.000000018
305236:6307,10/18/17 11:28:42,35,23,0.012186814,0.006486870
305237:6307,10/18/17 11:42:18,1150,1150,0.354404340,0.338238473
305247:6308,10/18/17 23:57:41,383,377,0.133496889,0.122981075
305248:6308,10/19/17 02:26:29,957,952,0.272850654,0.257882530
305249:6308,10/19/17 08:38:07,55,48,0.011719286,0.009423955
305250:6308,10/19/17 08:59:28,25,14,0.005189128,0.002400096
305252:6308,10/19/17 09:09:00,554,554,0.098268447,0.095781936
305282:6309,10/19/17 15:27:09,142,142,0.049388566,0.046376451
305310:6311,10/19/17 20:26:51,403,397,0.140400076,0.129833539
305311:6311,10/19/17 23:03:23,159,153,0.052839689,0.047386625
305312:6311,10/20/17 00:05:08,234,227,0.074448380,0.068271226
305313:6311,10/20/17 01:35:47,747,739,0.179748464,0.170164197
305314:6311,10/20/17 06:25:45,454,454,0.077929111,0.075817351
305336:6312,10/20/17 12:10:23,212,208,0.073185425,0.066718781
305338:6312,10/20/17 13:32:38,107,103,0.036719746,0.033111775
305341:6312,10/20/17 14:14:05,504,500,0.160488316,0.151780463
305349:6312,10/20/17 17:29:36,35,30,0.009630544,0.003880846
305350:6312,10/20/17 17:43:01,23,15,0.006216842,0.003820111
305351:6312,10/20/17 17:51:38,880,880,0.186881429,0.180005845
305358:6313,10/21/17 02:00:19,202,161,0.070500330,0.050357793
305364:6314,10/21/17 05:42:35,100,96,0.034591186,0.030801373
305365:6314,10/21/17 06:21:12,839,832,0.265362886,0.250643089
305366:6314,10/21/17 11:46:55,1281,1259,0.245811076,0.235228358
305367:6314,10/21/17 20:14:09,1,1,-0.000000036,-0.000000036
305376:6315,10/22/17 00:10:23,146,143,0.051012403,0.033728573
305377:6315,10/22/17 01:07:04,1529,1529,0.420775387,0.400145595
305405:6317,10/22/17 18:15:03,541,532,0.185543989,0.160569983
305406:6317,10/22/17 21:45:00,1482,1482,0.333300952,0.320488896
305440:6318,10/23/17 10:49:47,274,268,0.095153542,0.083597538
305441:6318,10/23/17 12:36:13,123,123,0.038429638,0.036951196
305516:6323,10/23/17 23:42:12,618,593,0.205900613,0.180738585
305517:6323,10/24/17 03:42:14,172,163,0.052337995,0.033973948
305518:6323,10/24/17 04:48:59,1139,1139,0.243644099,0.234413639
305586:6324,10/24/17 17:46:09,653,585,0.222173512,0.186960093
305588:6324,10/24/17 21:59:32,123,116,0.038160496,0.033859808
305589:6324,10/24/17 22:47:21,696,691,0.171287245,0.162878243
305590:6324,10/25/17 03:17:26,1027,1027,0.159287288,0.155066240
305636:6325,10/25/17 13:27:03,2341,2341,0.552025444,0.528026629
305745:6336,10/26/17 20:23:50,100,49,0.002599030,0.000986064
305746:6336,10/26/17 21:02:36,69,46,0.001749620,0.000903285
305747:6336,10/26/17 21:29:18,18,10,0.000451072,0.000233265
305748:6336,10/26/17 21:36:04,18,10,0.000448906,0.000226529
305749:6336,10/26/17 21:42:50,18,10,0.000446640,0.000223291
305750:6336,10/26/17 21:49:45,18,10,0.000444400,0.000218354
305751:6336,10/26/17 21:56:35,18,10,0.000441968,0.000224446
305752:6336,10/26/17 22:03:15,19,10,0.000464394,0.000223305
305753:6336,10/26/17 22:10:18,17,10,0.000413480,0.000216618
305754:6336,10/26/17 22:16:55,18,10,0.000435534,0.000217574
305755:6336,10/26/17 22:23:33,18,10,0.000434770,0.000218914
305756:6336,10/26/17 22:30:28,25,18,0.000600527,0.000400867
305757:6336,10/26/17 22:40:07,244,240,0.005459053,0.005219126
305758:6336,10/27/17 00:14:42,31,31,0.000329773,0.000322995
305766:6337,10/27/17 04:36:46,860,859,0.280500830,0.266550550
305809:6341,10/27/17 23:19:52,146,146,0.049919434,0.046755040
305814:6343,10/28/17 06:16:21,1832,1832,0.471197909,0.448559298
305821:6344,10/28/17 20:28:35,776,776,0.256047817,0.241077673
305832:6346,10/29/17 11:22:04,270,262,0.094055583,0.058516931
305833:6346,10/29/17 13:06:37,100,28,0.035685202,0.007357130
305839:6346,10/29/17 13:45:13,293,284,0.095643816,0.088013707
305840:6346,10/29/17 15:39:01,1145,1141,0.262825322,0.251347322
305841:6346,10/29/17 23:03:36,10,2,0.001684293,0.000013502
305842:6346,10/29/17 23:07:26,868,868,0.118439827,0.115398547
305862:6347,10/30/17 11:27:32,630,630,0.213729268,0.202837389
305898:6348,10/30/17 20:21:24,713,713,0.242070606,0.231265193
305902:6349,10/31/17 04:25:55,474,474,0.163075566,0.155359222
305963:6351,10/31/17 15:21:58,82,0,0.028662799,0
305964:6351,10/31/17 15:53:42,12,2,0.004209885,0
305965:6351,10/31/17 15:58:15,10,3,0.003494715,0.000000003
305966:6351,10/31/17 16:01:47,18,11,0.006315813,0.000000002
305967:6351,10/31/17 16:08:26,33,33,0.011124181,0.010507801
306029:6355,11/01/17 18:27:54,37,34,0.012925571,0.009551752
306030:6355,11/01/17 18:41:57,111,111,0.038360868,0.034967594
306036:6356,11/01/17 22:43:01,9,6,0.003121336,0.000373893
306037:6356,11/01/17 22:46:26,53,44,0.018498997,0.012206880
306038:6356,11/01/17 23:06:46,141,138,0.049206557,0.044162104
306039:6356,11/02/17 00:01:15,7,2,0.002449963,0
306040:6356,11/02/17 00:03:52,9,6,0.003125674,0.000000003
306041:6356,11/02/17 00:07:18,328,320,0.110153830,0.100003850
306042:6356,11/02/17 02:14:22,373,365,0.108083555,0.100185074
306048:6356,11/02/17 04:39:06,141,136,0.035685056,0.032036620
306049:6356,11/02/17 05:33:33,378,359,0.082847916,0.075297556
306051:6356,11/02/17 08:00:13,430,430,0.075003460,0.072821254
306091:6358,11/02/17 16:16:40,587,577,0.221244644,0.206339812
306092:6358,11/02/17 20:04:27,992,976,0.238882549,0.220997436
306093:6358,11/03/17 02:29:52,25,16,0.004564020,0.000016753
306094:6358,11/03/17 02:39:33,9,5,0.001630308,0.000693567
306095:6358,11/03/17 02:42:56,515,506,0.082565141,0.075797706
306096:6358,11/03/17 06:02:49,56,56,0.007731110,0.007497961
306121:6360,11/03/17 13:15:10,99,93,0.034532306,0.029001552
306122:6360,11/03/17 13:53:17,137,127,0.047833404,0.040636078
306125:6360,11/03/17 14:46:12,3007,3001,0.587473247,0.565942881
306126:6360,11/04/17 10:14:24,501,501,0.030661162,0.029948094
306134:6362,11/04/17 17:39:00,34,26,0.011872466,0.007310484
306135:6362,11/04/17 17:52:01,1174,1165,0.368575134,0.345641632
306137:6362,11/05/17 01:27:48,12,5,0.002858179,0.001104303
306138:6362,11/05/17 01:32:21,1353,1298,0.224512129,0.211381092
306139:6362,11/05/17 10:17:58,1118,1118,0.103853766,0.101820977
306153:6364,11/06/17 02:35:10,91,85,0.031740846,0.026867701
306154:6364,11/06/17 03:10:19,1240,1231,0.369540297,0.339585142
306155:6364,11/06/17 11:12:05,1553,1440,0.227433654,0.219491926
306168:6364,11/06/17 21:15:14,73,4,0.005674494,0.000041707
306169:6364,11/06/17 21:43:34,746,735,0.069199450,0.066299041
306170:6364,11/07/17 02:33:04,22,15,0.001776696,0.001135254
306171:6364,11/07/17 02:41:35,509,509,0.036738163,0.035750468
306416:6370,11/09/17 01:27:35,26,16,0.009126591,0.000000068
306417:6370,11/09/17 01:37:34,88,81,0.030762304,0.026098422
306418:6370,11/09/17 02:11:31,77,67,0.026792495,0.021114880
306419:6370,11/09/17 02:41:06,66,58,0.022897958,0.018423612
306420:6370,11/09/17 03:06:38,131,121,0.043484228,0.034221648
306421:6370,11/09/17 03:57:29,78,8,0.025736478,0.000000281
306422:6370,11/09/17 04:27:30,126,123,0.040317304,0.036841094
306423:6370,11/09/17 05:16:28,338,323,0.094565820,0.085778258
306425:6370,11/09/17 07:27:45,197,179,0.048020943,0.043015031
306432:6370,11/09/17 08:44:06,340,340,0.034315575,0.033338283
306454:6371,11/09/17 14:18:03,91,87,0.031538491,0.027150929
306455:6371,11/09/17 14:53:13,13,6,0.004551015,0.001621957
306456:6371,11/09/17 14:58:09,787,784,0.248876207,0.237360374
306457:6371,11/09/17 20:03:47,31,28,0.007985063,0.006686619
306458:6371,11/09/17 20:15:39,269,264,0.064952960,0.061333728
306459:6371,11/09/17 22:00:10,2286,2274,0.316113436,0.307839828
306460:6371,11/10/17 12:48:13,73,64,0.003867124,0.003722601
306461:6371,11/10/17 13:16:29,47,42,0.000004095,0.000003458
306462:6371,11/10/17 13:34:28,91,91,0.000004746,0.000004643
306545:6380,11/11/17 19:30:16,4,0,0.000000367,0
306546:6380,11/11/17 19:31:36,72,66,0.000005875,0.000004910
306547:6380,11/11/17 19:59:28,312,306,0.000013643,0.000012940
306548:6380,11/11/17 22:00:34,47,8,0.000003925,0.000000625
306549:6380,11/11/17 22:18:51,54,46,0.000004487,0.000003701
306550:6380,11/11/17 22:39:40,1067,1067,0.000078670,0.000077484
306553:6381,11/12/17 07:16:57,768,768,0.004478469,0.004302206
306563:6382,11/12/17 15:16:14,144,144,0.002550909,0.002446274
306572:6384,11/12/17 18:47:24,1644,1644,0.022265302,0.021608169
306580:6385,11/13/17 07:56:57,1476,1470,0.029137679,0.028255125
306584:6385,11/13/17 17:30:04,125,118,0.001814393,0.001657011
306595:6385,11/13/17 18:18:21,115,108,0.001610203,0.001465848
306598:6385,11/13/17 19:02:47,495,489,0.006346242,0.006084899
306604:6385,11/13/17 22:15:06,1762,1762,0.017075878,0.016561547
306629:6386,11/14/17 11:45:31,632,628,0.015847063,0.015213238
306630:6386,11/14/17 15:50:57,115,107,0.002406251,0.002093095
306631:6386,11/14/17 16:35:28,1035,1035,0.017599381,0.017040142
306636:6387,11/15/17 00:48:55,8,8,0.000104643,0.000095025
306645:6388,11/15/17 02:45:36,22,18,0.000647942,0.000245955
306646:6388,11/15/17 02:53:48,16,7,0.000460880,0.000172071
306647:6388,11/15/17 02:59:54,3,3,0.000042436,0.000039151
306651:6389,11/15/17 04:35:31,20,17,0.000586508,0.000286615
306652:6389,11/15/17 04:43:08,15,6,0.000430616,0.000139592
306653:6389,11/15/17 04:48:43,95,71,0.002608025,0.001771227
306654:6389,11/15/17 05:25:30,134,100,0.003387889,0.002153561
306656:6389,11/15/17 06:17:14,135,129,0.003158073,0.002503526
306657:6389,11/15/17 07:09:31,692,692,0.013541092,0.013128549
306705:6390,11/15/17 15:12:50,1227,1227,0.026178162,0.025287365
306709:6392,11/16/17 04:51:15,1399,1399,0.028495836,0.027513029
306772:6396,11/16/17 21:47:23,1918,1915,0.020952949,0.020149190
306773:6396,11/17/17 10:12:22,1755,1748,0.010665398,0.010267465
306776:6396,11/17/17 21:34:01,37,34,0.000182123,0.000157408
306777:6396,11/17/17 21:48:19,2032,2032,0.008184810,0.007937426
306793:6397,11/18/17 12:40:28,3448,3441,0.038927963,0.037542905
306794:6397,11/19/17 10:59:52,1233,1233,0.007302607,0.007061082
306801:6398,11/19/17 20:45:53,1832,1826,0.024832594,0.023945625
306802:6398,11/20/17 08:37:23,176,176,0.001658040,0.001637832
306810:6399,11/20/17 12:05:55,66,18,0.001339121,0.000334821
306811:6399,11/20/17 12:31:14,483,369,0.007901470,0.006068407
306816:6399,11/20/17 15:38:38,379,372,0.005084905,0.004929974
306818:6399,11/20/17 18:05:37,5,2,0.000062005,0.000001070
306820:6399,11/20/17 18:07:34,39,32,0.000476792,0.000375708
306822:6399,11/20/17 18:22:30,134,123,0.001600091,0.001449893
306824:6399,11/20/17 19:14:28,292,285,0.003011564,0.002860654
306826:6399,11/20/17 21:07:35,1376,1376,0.008225104,0.008061881
306896:6402,11/21/17 12:49:30,69,64,0.000019001,0.000016835
306897:6402,11/21/17 13:16:15,12,12,0.000003568,0.000003077
306926:6404,11/21/17 17:05:38,81,21,0.008772712,0.001894704
306929:6404,11/21/17 17:36:48,252,252,0.004781214,0.004427804
306936:6405,11/21/17 21:36:30,1609,1609,0.043420936,0.041712032
307014:6411,11/22/17 21:46:14,1170,1165,0.023579543,0.022766480
307015:6411,11/23/17 05:20:41,398,391,0.006989710,0.006633826
307016:6411,11/23/17 07:55:19,317,311,0.005558439,0.005295193
307017:6411,11/23/17 09:58:19,761,761,0.013325583,0.012991833
307042:6413,11/23/17 19:37:23,530,512,0.011290676,0.010402865
307044:6413,11/23/17 23:03:03,86,80,0.001510357,0.001335744
307045:6413,11/23/17 23:36:23,54,46,0.000951275,0.000776238
307046:6413,11/23/17 23:57:16,87,76,0.001526678,0.001300656
307047:6413,11/24/17 00:30:45,526,520,0.009271719,0.008834277
307048:6413,11/24/17 03:55:06,195,189,0.003431266,0.003199995
307049:6413,11/24/17 05:10:46,37,30,0.000652925,0.000417606
307050:6413,11/24/17 05:24:58,328,311,0.005772537,0.005295817
307051:6413,11/24/17 07:32:04,519,508,0.009122120,0.008609305
307052:6413,11/24/17 10:53:29,30,22,0.000533293,0.000344684
307053:6413,11/24/17 11:04:48,57,50,0.001007413,0.000830367
307054:6413,11/24/17 11:26:54,66,58,0.001160233,0.000965730
307055:6413,11/24/17 11:52:33,879,874,0.015429124,0.014881634
307062:6413,11/24/17 17:33:41,803,793,0.014147213,0.013555528
307063:6413,11/24/17 22:45:19,230,230,0.004019601,0.003895741
307073:6415,11/25/17 04:26:35,882,865,0.016394478,0.015273782
307075:6415,11/25/17 10:09:07,120,112,0.002116640,0.001898521
307076:6415,11/25/17 10:55:28,1669,1669,0.029401773,0.028497320
307082:6417,11/26/17 01:58:07,1321,1321,0.023764228,0.022542287
#Summary:
#nfill,nrun,nls,ncms,totdelivered(/fb),totrecorded(/fb)
#227,960,289287,279383,50.148552085,45.317317793
